<svg xmlns="http://www.w3.org/2000/svg" width="19" height="21" viewBox="0 0 19 21">
    <path fill-rule="evenodd" d="M19 18.896c0 .61-.47 1.104-1.049 1.104H13.11v-7.745h2.47l.37-3.018h-2.84V7.309c0-.874.23-1.469 1.42-1.469h1.52v-2.7c-.264-.037-1.165-.12-2.213-.12-2.19 0-3.688 1.407-3.688 3.99v2.227H7.673v3.018h2.476V20h-9.1C.469 20 0 19.505 0 18.896V1.104C0 .494.47 0 1.049 0H17.95C18.531 0 19 .494 19 1.104v17.792"/>
</svg>
