<svg xmlns="http://www.w3.org/2000/svg" width="19" height="19" viewBox="0 0 19 19">
    <path fill="#000" fill-rule="evenodd" d="M4.182 5.772V18H.48V5.772h3.703zM14.3 5.655c2.632 0 4.7 1.758 4.7 5.546V18h-4.2v-6.328c0-1.656-.656-2.786-2.1-2.786-1.105 0-1.72.762-2.006 1.498-.071.176-.088.398-.09.635V18h-4.16s.053-11.209 0-12.228h4.16v1.92c.245-.84 1.575-2.037 3.696-2.037zM2.262 0C3.628 0 4.47.913 4.495 2.12c0 1.185-.867 2.123-2.259 2.123H2.21C.87 4.243 0 3.308 0 2.123 0 .915.895 0 2.262 0z"/>
</svg>
